Open Case Studies: Opioids in United States
…
Interesting, we appear to be missing countyfips codes (recall that FIPS stands for the Federal Information Processing Standards (FIPS) code) for a small percentage of our annual data.

Let’s take a look at this data:

annualDosage %>% 
  filter(is.na(countyfips))

# A tibble: 760 x 6
   BUYER_COUNTY BUYER_STATE  year count DOSAGE_UNIT countyfips
   <chr>        <chr>       <int> <int>       <dbl> <chr>     
 1 ADJUNTAS     PR           2006   147      102800 <NA>      
 2 ADJUNTAS     PR           2007   153      104800 <NA>      
 3 ADJUNTAS     PR           2008   153       45400 <NA>      
 4 ADJUNTAS     PR           2009   184       54200 <NA>      
 5 ADJUNTAS     PR           2010   190       56200 <NA>      
 6 ADJUNTAS     PR           2011   186       65530 <NA>      
 7 ADJUNTAS     PR           2012   138       57330 <NA>      
 8 ADJUNTAS     PR           2013   138       65820 <NA>      
 9 ADJUNTAS     PR           2014    90       59490 <NA>      
10 AGUADA       PR           2006   160       49200 <NA>      
# … with 750 more rows
…
LND210190D Water area in square miles 1990

LND210200D Water area in square miles 2000

We also want to be able to identify what land area is for what county, thus we will also keep the the column with area names as well as the column called STCOU. This variable contains numeric codes that are used to identify states and counties called Federal Information Processing Standards (FIPS). In this dataset we have national state, and county codes, so this variable is called STCOU (short for State and County).

We can select just the names, the county/state numeric codes (STCOU), and the LND110210D column by using the select() function of the dplyr package.

land_area <- 
  land %>% 
  select(Areaname, STCOU, LND110210D)

land_area

# A tibble: 3,198 x 3
   Areaname      STCOU LND110210D
   <chr>         <chr>      <dbl>
 1 UNITED STATES 00000   3531905.
 2 ALABAMA       01000     50645.
 3 Autauga, AL   01001       594.
 4 Baldwin, AL   01003      1590.
 5 Barbour, AL   01005       885.
 6 Bibb, AL      01007       623.
 7 Blount, AL    01009       645.
 8 Bullock, AL   01011       623.
 9 Butler, AL    01013       777.
10 Calhoun, AL   01015       606.
# … with 3,188 more rows
…
The str_detect() function allows us to look for a particular pattern. It does not have to be the full value, i.e., a partial match is allowed. We can look to see if there are any PR strings within the values of the the Areaname variable.

land_area %>% 
  filter(str_detect(string = Areaname, pattern = "PR"))

# A tibble: 0 x 3
# … with 3 variables: Areaname <chr>, STCOU <chr>, LND110210D <dbl>

It does not look as if there are any entries for Puerto Rico, but let’s check our code. You can see using a different abbreviation, that this code works as intended:

land_area %>% 
  filter(str_detect(string = Areaname, pattern = "AR"))

# A tibble: 81 x 3
   Areaname     STCOU LND110210D
   <chr>        <chr>      <dbl>
 1 ARIZONA      04000    113594.
 2 ARKANSAS     05000     52035.
 3 Arkansas, AR 05001       989.
 4 Ashley, AR   05003       925.
 5 Baxter, AR   05005       554.
 6 Benton, AR   05007       847.
 7 Boone, AR    05009       590.
 8 Bradley, AR  05011       649.
 9 Calhoun, AR  05013       629.
10 Carroll, AR  05015       630.
# … with 71 more rows
…
We can see that several variables are missing for some of our counties.

Let’s take a look at the counties that are missing density.

Annual %>%
  filter(is.na(density))

# A tibble: 27 x 16
   BUYER_COUNTY BUYER_STATE year  count DOSAGE_UNIT countyfips STATE COUNTY
   <chr>        <chr>       <fct> <int>       <dbl> <chr>      <int>  <int>
 1 MONTGOMERY   AR          2006    469      175390 05097         NA     NA
 2 MONTGOMERY   AR          2007    597      241270 05097         NA     NA
 3 MONTGOMERY   AR          2008    561      251760 05097         NA     NA
 4 MONTGOMERY   AR          2009    554      244160 05097         NA     NA
 5 MONTGOMERY   AR          2010    449      247990 05097         NA     NA
 6 MONTGOMERY   AR          2011    560      313800 05097         NA     NA
 7 MONTGOMERY   AR          2012    696      339520 05097         NA     NA
 8 MONTGOMERY   AR          2013    703      382300 05097         NA     NA
 9 MONTGOMERY   AR          2014    491      396900 05097         NA     NA
10 PRINCE OF W… AK          2006    190       62700 02201         NA     NA
# … with 17 more rows, and 8 more variables: county_name <chr>, NAME <chr>,
#   variable <chr>, population <int>, Areaname <chr>, LND110210D <dbl>,
#   density <dbl>, rural_urban <chr>
…
We can use the filter() function again to see what counties don’t have any DOSAGE_UNIT values and thus don’t appear to have this data in the Washington Post DEA data.

checking %>%
  filter(is.na(DOSAGE_UNIT))

# A tibble: 1,285 x 16
   BUYER_COUNTY BUYER_STATE countyfips STATE COUNTY county_name NAME  variable
   <chr>        <chr>       <chr>      <int>  <int> <chr>       <chr> <chr>   
 1 BRISTOL BAY  AK          02060          2     60 Bristol Bay Bris… B01003_…
 2 DILLINGHAM   AK          02070          2     70 Dillingham  Dill… B01003_…
 3 LAKE AND PE… AK          02164          2    164 Lake and P… Lake… B01003_…
 4 NOME         AK          02180          2    180 Nome        Nome… B01003_…
 5 PRINCE OF W… AK          02198          2    201 Prince of … <NA>  <NA>    
 6 SKAGWAY HOO… AK          02232          2    232 Skagway Ho… <NA>  <NA>    
 7 SOUTHEAST F… AK          02240          2    240 Southeast … Sout… B01003_…
 8 WADE HAMPTON AK          02270          2    270 Wade Hampt… Wade… B01003_…
 9 WRANGELL     AK          02275          2    280 Wrangell    <NA>  <NA>    
10 YAKUTAT      AK          02282          2    282 Yakutat     Yaku… B01003_…
# … with 1,275 more rows, and 8 more variables: year <fct>, population <int>,
#   Areaname <chr>, LND110210D <dbl>, density <dbl>, rural_urban <chr>,
#   count <int>, DOSAGE_UNIT <dbl>

checking %>%
  filter(is.na(DOSAGE_UNIT)) %>% 
  distinct(countyfips) 

# A tibble: 174 x 1
   countyfips
   <chr>     
 1 02060     
 2 02070     
 3 02164     
 4 02180     
 5 02198     
 6 02232     
 7 02240     
 8 02270     
 9 02275     
10 02282     
# … with 164 more rows
…
Population density

Let’s make a plot to see how population density has changed over time in each state.

To do this, we want to calculate a mean population density (across all the counties) for each state for each year.

We can do this using the group_by() and summarize() functions of the dplyr package. The group_by functions allows for the data to be arranged into groups for subsequent functions.

If we group only by BUYER_STATE, you see that this results in 51 groups (one for each state including Washington DC). This does not change anything about the data itself (or even how it is printed aside from the groups written above the table), just how it is handled in subsequent steps.

Annual %>% 
  group_by(BUYER_STATE)

# A tibble: 26,980 x 16
# Groups:   BUYER_STATE [51]
   BUYER_COUNTY BUYER_STATE year  count DOSAGE_UNIT countyfips STATE COUNTY
   <chr>        <chr>       <fct> <int>       <dbl> <chr>      <int>  <int>
 1 ABBEVILLE    SC          2006    877      363620 45001         45      1
 2 ABBEVILLE    SC          2007    908      402940 45001         45      1
 3 ABBEVILLE    SC          2008    871      424590 45001         45      1
 4 ABBEVILLE    SC          2009    930      467230 45001         45      1
 5 ABBEVILLE    SC          2010   1197      539280 45001         45      1
 6 ABBEVILLE    SC          2011   1327      566560 45001         45      1
 7 ABBEVILLE    SC          2012   1509      589010 45001         45      1
 8 ABBEVILLE    SC          2013   1572      596420 45001         45      1
 9 ABBEVILLE    SC          2014   1558      641350 45001         45      1
10 ACADIA       LA          2006   5802     1969720 22001         22      1
# … with 26,970 more rows, and 8 more variables: county_name <chr>, NAME <chr>,
#   variable <chr>, population <int>, Areaname <chr>, LND110210D <dbl>,
#   density <dbl>, rural_urban <chr>

Alternatively, if we group by year this results in 9 groups of data, one for each year.

Annual %>% 
  group_by(year)

# A tibble: 26,980 x 16
# Groups:   year [9]
   BUYER_COUNTY BUYER_STATE year  count DOSAGE_UNIT countyfips STATE COUNTY
   <chr>        <chr>       <fct> <int>       <dbl> <chr>      <int>  <int>
 1 ABBEVILLE    SC          2006    877      363620 45001         45      1
 2 ABBEVILLE    SC          2007    908      402940 45001         45      1
 3 ABBEVILLE    SC          2008    871      424590 45001         45      1
 4 ABBEVILLE    SC          2009    930      467230 45001         45      1
 5 ABBEVILLE    SC          2010   1197      539280 45001         45      1
 6 ABBEVILLE    SC          2011   1327      566560 45001         45      1
 7 ABBEVILLE    SC          2012   1509      589010 45001         45      1
 8 ABBEVILLE    SC          2013   1572      596420 45001         45      1
 9 ABBEVILLE    SC          2014   1558      641350 45001         45      1
10 ACADIA       LA          2006   5802     1969720 22001         22      1
# … with 26,970 more rows, and 8 more variables: county_name <chr>, NAME <chr>,
#   variable <chr>, population <int>, Areaname <chr>, LND110210D <dbl>,
#   density <dbl>, rural_urban <chr>

We want to group by both BUYER_STATE and year, so that we get the mean of all the counties for each state for each year. If we only did by BUYER_STATE, we would only get 51 summarized results, one for each state representing a mean across the years.

Annual %>% 
  group_by(BUYER_STATE, year)

# A tibble: 26,980 x 16
# Groups:   BUYER_STATE, year [459]
   BUYER_COUNTY BUYER_STATE year  count DOSAGE_UNIT countyfips STATE COUNTY
   <chr>        <chr>       <fct> <int>       <dbl> <chr>      <int>  <int>
 1 ABBEVILLE    SC          2006    877      363620 45001         45      1
 2 ABBEVILLE    SC          2007    908      402940 45001         45      1
 3 ABBEVILLE    SC          2008    871      424590 45001         45      1
 4 ABBEVILLE    SC          2009    930      467230 45001         45      1
 5 ABBEVILLE    SC          2010   1197      539280 45001         45      1
 6 ABBEVILLE    SC          2011   1327      566560 45001         45      1
 7 ABBEVILLE    SC          2012   1509      589010 45001         45      1
 8 ABBEVILLE    SC          2013   1572      596420 45001         45      1
 9 ABBEVILLE    SC          2014   1558      641350 45001         45      1
10 ACADIA       LA          2006   5802     1969720 22001         22      1
# … with 26,970 more rows, and 8 more variables: county_name <chr>, NAME <chr>,
#   variable <chr>, population <int>, Areaname <chr>, LND110210D <dbl>,
#   density <dbl>, rural_urban <chr>

We can see that this results in 459 groups. This makes sense because 51 groups over 9 years is 51 multiplied by 9, which equals 459.

We can use the summarize() function to create a new variable called mean_DENS, which will be equal to the mean of the population density variable for all the counties within each of the 449 groups. If we had missing values we would need to use the na.rm = TRUE argument to remove any missing values in our calculation.

Annual %>% 
  group_by(BUYER_STATE, year) %>%
  summarize(mean_DENS = mean(density, na.rm = TRUE))

# A tibble: 459 x 3
# Groups:   BUYER_STATE [51]
   BUYER_STATE year  mean_DENS
   <chr>       <fct>     <dbl>
 1 AK          2006       11.6
 2 AK          2007       12.2
 3 AK          2008       13.9
 4 AK          2009       13.0
 5 AK          2010       13.2
 6 AK          2011       14.2
 7 AK          2012       13.5
 8 AK          2013       14.6
 9 AK          2014       14.7
10 AL          2006       87.3
# … with 449 more rows
…
   Sepal.Length Sepal.Width Petal.Length Petal.Width    Species
1           4.3         3.0          1.1         0.1     setosa
2           5.0         3.3          1.4         0.2     setosa
3           7.7         3.8          6.7         2.2  virginica
4           4.4         3.2          1.3         0.2     setosa
5           5.9         3.0          5.1         1.8  virginica
6           6.5         3.0          5.2         2.0  virginica
7           5.5         2.5          4.0         1.3 versicolor
8           5.5         2.6          4.4         1.2 versicolor
9           5.8         2.7          5.1         1.9  virginica
10          6.1         3.0          4.6         1.4 versicolor

OK, so currently we have 4 different columns about measurements of different flowers. Since all of these measurements are similar, one might produce a new variable that is made up of the names of the first four variables and another that is the numeric value like so:

# A tibble: 40 x 3
   Species   Measurement  Value
   <fct>     <chr>        <dbl>
 1 setosa    Sepal.Length   4.3
 2 setosa    Sepal.Width    3  
 3 setosa    Petal.Length   1.1
 4 setosa    Petal.Width    0.1
 5 setosa    Sepal.Length   5  
 6 setosa    Sepal.Width    3.3
 7 setosa    Petal.Length   1.4
 8 setosa    Petal.Width    0.2
 9 virginica Sepal.Length   7.7
10 virginica Sepal.Width    3.8
# … with 30 more rows
…
